5.000000000000000000e+02 -1.623851322348095664e+03 3.700000000000000000e+01
1.000000000000000000e+03 -3.086268269010784024e+03 7.000000000000000000e+00
1.500000000000000000e+03 -4.563318202026275685e+03 3.000000000000000000e+00
2.000000000000000000e+03 -6.075702190861880808e+03 5.000000000000000000e+00
2.500000000000000000e+03 -7.556132296751465219e+03 4.000000000000000000e+00
3.000000000000000000e+03 -9.040052042568473553e+03 1.000000000000000000e+00
3.500000000000000000e+03 -1.045344905264645968e+04 2.000000000000000000e+00
4.000000000000000000e+03 -1.194950378584945247e+04 8.000000000000000000e+00
4.500000000000000000e+03 -1.347151890739496230e+04 1.900000000000000000e+01
5.000000000000000000e+03 -1.491469554123530179e+04 1.700000000000000000e+01
5.500000000000000000e+03 -1.637651308620552118e+04 4.000000000000000000e+00
6.000000000000000000e+03 -1.786781015913145166e+04 2.400000000000000000e+01
6.500000000000000000e+03 -1.937248849774812697e+04 1.900000000000000000e+01
7.000000000000000000e+03 -2.080827352554156460e+04 1.700000000000000000e+01
7.500000000000000000e+03 -2.226793824064939326e+04 1.600000000000000000e+01
8.000000000000000000e+03 -2.371076970672837342e+04 1.300000000000000000e+01
8.500000000000000000e+03 -2.514819438768603504e+04 2.400000000000000000e+01
9.000000000000000000e+03 -2.660791898602191213e+04 1.300000000000000000e+01
9.500000000000000000e+03 -2.803036050786981286e+04 1.600000000000000000e+01
1.000000000000000000e+04 -2.952916579316906427e+04 1.300000000000000000e+01
