1.000000000000000000e+02 2.384884595870971680e+00 -4.482272119052586845e+02 3.278964302999066494e+00 6.100000000000000000e+01
1.180000000000000000e+02 2.760452032089233398e+00 -5.304123325688240129e+02 3.703370673771305466e+00 7.300000000000000000e+01
1.410000000000000000e+02 2.725633621215820312e+00 -6.356213204846341114e+02 3.429012987407972002e+00 7.100000000000000000e+01
1.680000000000000000e+02 4.184337854385375977e+00 -7.579073459298451780e+02 4.367915327227798628e+00 9.700000000000000000e+01
1.990000000000000000e+02 4.090638637542724609e+00 -8.793299888657872998e+02 4.352327741840801067e+00 9.500000000000000000e+01
2.370000000000000000e+02 3.793949127197265625e+00 -1.046850125945351692e+03 4.369006172311118874e+00 9.500000000000000000e+01
2.820000000000000000e+02 3.511694669723510742e+00 -1.251721144032341272e+03 4.028720210852726247e+00 8.000000000000000000e+01
3.360000000000000000e+02 4.312334299087524414e+00 -1.478543464122116575e+03 4.557699501038470657e+00 9.900000000000000000e+01
3.990000000000000000e+02 4.496248006820678711e+00 -1.732617815399162964e+03 4.608102944708340587e+00 1.000000000000000000e+02
4.750000000000000000e+02 4.856225967407226562e+00 -2.053741775334986869e+03 4.694682894180235877e+00 1.020000000000000000e+02
5.650000000000000000e+02 5.477014780044555664e+00 -2.416666550585763616e+03 4.980341438719969815e+00 1.110000000000000000e+02
6.720000000000000000e+02 6.238629341125488281e+00 -2.890123084107482100e+03 5.118672390433339103e+00 1.200000000000000000e+02
7.990000000000000000e+02 5.225363731384277344e+00 -3.373292096436719021e+03 4.481888233695642931e+00 9.700000000000000000e+01
9.510000000000000000e+02 5.523331880569458008e+00 -4.051364419657268627e+03 4.461231621132730751e+00 9.500000000000000000e+01
1.131000000000000000e+03 5.657687425613403320e+00 -4.775739373708323001e+03 4.429195858080352544e+00 9.100000000000000000e+01
1.345000000000000000e+03 8.586493492126464844e+00 -5.639504974563884389e+03 5.258903158143507284e+00 1.300000000000000000e+02
1.599000000000000000e+03 8.062501192092895508e+00 -6.849523830645705857e+03 5.245574137250096136e+00 1.240000000000000000e+02
1.902000000000000000e+03 7.785254716873168945e+00 -8.002197859417889049e+03 4.872460689540084822e+00 1.070000000000000000e+02
2.262000000000000000e+03 1.163229227066040039e+01 -9.545559018450121584e+03 5.169856184429891144e+00 1.230000000000000000e+02
2.690000000000000000e+03 1.594740295410156250e+01 -1.147243506246770630e+04 5.944242010489904970e+00 1.600000000000000000e+02
3.199000000000000000e+03 1.480390143394470215e+01 -1.354327121412437009e+04 5.153313245161385225e+00 1.260000000000000000e+02
3.805000000000000000e+03 1.931774330139160156e+01 -1.612318120702327724e+04 5.806130072806896081e+00 1.480000000000000000e+02
4.525000000000000000e+03 2.174292063713073730e+01 -1.911484503411945843e+04 5.981765407183597283e+00 1.650000000000000000e+02
5.381000000000000000e+03 2.394542360305786133e+01 -2.275824948285545543e+04 5.837840801425412174e+00 1.510000000000000000e+02
6.399000000000000000e+03 2.770435953140258789e+01 -2.705867437824108129e+04 5.180141810865825036e+00 1.270000000000000000e+02
7.610000000000000000e+03 3.172848272323608398e+01 -3.227620044072070959e+04 5.559704763025823837e+00 1.360000000000000000e+02
9.050000000000000000e+03 4.954184341430664062e+01 -3.843326361140420340e+04 6.609518890660119439e+00 1.930000000000000000e+02
1.076300000000000000e+04 4.517811226844787598e+01 -4.561180678362720209e+04 6.218986804131387380e+00 1.660000000000000000e+02
1.279900000000000000e+04 7.679610085487365723e+01 -5.423879880908155610e+04 6.990370160867751537e+00 2.060000000000000000e+02
1.522100000000000000e+04 5.839159750938415527e+01 -6.502556529590630089e+04 5.951918074663763214e+00 1.520000000000000000e+02
1.810100000000000000e+04 8.284133005142211914e+01 -7.652731716215441702e+04 5.962816634073302424e+00 1.530000000000000000e+02
2.152600000000000000e+04 9.394321918487548828e+01 -9.124282282300987572e+04 5.952740821368918134e+00 1.520000000000000000e+02
2.559900000000000000e+04 9.382312870025634766e+01 -1.096961119600509555e+05 5.897258043738394129e+00 1.490000000000000000e+02
3.044300000000000000e+04 1.975396003723144531e+02 -1.290952733303984132e+05 7.421464033278506456e+00 2.290000000000000000e+02
3.620300000000000000e+04 1.839817900657653809e+02 -1.533476809513471671e+05 6.699394781151804423e+00 1.900000000000000000e+02
4.305300000000000000e+04 1.765541100502014160e+02 -1.822181727327313274e+05 6.197455985498966591e+00 1.620000000000000000e+02
5.119900000000000000e+04 1.855722630023956299e+02 -2.166299521211262327e+05 6.008102910657718176e+00 1.540000000000000000e+02
6.088700000000000000e+04 3.486449441909790039e+02 -2.577446177336594264e+05 6.764646840893201230e+00 1.980000000000000000e+02
7.240700000000000000e+04 3.847702300548553467e+02 -3.065007770025453065e+05 6.088818801497487776e+00 1.570000000000000000e+02
8.610700000000000000e+04 4.503178529739379883e+02 -3.671041218665628694e+05 6.481453178168695040e+00 1.760000000000000000e+02
1.023990000000000000e+05 9.008884062767028809e+02 -4.328813606970643741e+05 7.697074296909453217e+00 2.450000000000000000e+02
1.217740000000000000e+05 6.213191502094268799e+02 -5.149743399426980177e+05 6.461425649804933613e+00 1.750000000000000000e+02
1.448150000000000000e+05 9.569604406356811523e+02 -6.126726207871749066e+05 6.694813515514819180e+00 1.880000000000000000e+02
1.722150000000000000e+05 8.736856112480163574e+02 -7.283371816807301948e+05 6.238197006766076136e+00 1.640000000000000000e+02
2.047990000000000000e+05 1.221587894678115845e+03 -8.652372609167490155e+05 6.481448568294012169e+00 1.760000000000000000e+02
2.435490000000000000e+05 1.154059159755706787e+03 -1.030039085194874788e+06 6.038239457172790203e+00 1.550000000000000000e+02
2.896300000000000000e+05 1.721852749824523926e+03 -1.224330982068374055e+06 6.838070003753490056e+00 1.950000000000000000e+02
3.444310000000000000e+05 2.002043358325958252e+03 -1.454034752114027739e+06 6.946507637463689377e+00 2.010000000000000000e+02
4.095990000000000000e+05 1.974054413557052612e+03 -1.731018598212147132e+06 6.708869232466095234e+00 1.880000000000000000e+02
4.870990000000000000e+05 2.298103517770767212e+03 -2.055705719189696945e+06 6.062926082656095339e+00 1.550000000000000000e+02
5.792610000000000000e+05 3.118522035360336304e+03 -2.448574795029520988e+06 6.462134846168755331e+00 1.750000000000000000e+02
6.888620000000000000e+05 4.116529160022735596e+03 -2.910884327610987704e+06 6.225686805899024456e+00 1.630000000000000000e+02
8.191990000000000000e+05 6.065199969530105591e+03 -3.463370587463807315e+06 6.519905181800630167e+00 1.780000000000000000e+02
9.741980000000000000e+05 6.427008700132369995e+03 -4.113484900897828396e+06 6.727492008409448943e+00 1.890000000000000000e+02
1.000000000000000000e+06 5.522457855224609375e+03 -4.227392831278424710e+06 6.062850968853669364e+00 1.550000000000000000e+02
