5.000000000000000000e+02 5.578977584838867188e+00 -7.524137381121827275e+02 3.600000000000000000e+01
1.000000000000000000e+03 8.065451383590698242e+00 -1.444672678026626727e+03 1.500000000000000000e+01
1.500000000000000000e+03 1.024587726593017578e+01 -2.134113840136001727e+03 1.000000000000000000e+01
2.000000000000000000e+03 2.147371816635131836e+01 -2.842297815386552429e+03 4.700000000000000000e+01
2.500000000000000000e+03 3.273364162445068359e+01 -3.550321453233386819e+03 4.700000000000000000e+01
3.000000000000000000e+03 4.522099018096923828e+01 -4.262354169443410683e+03 5.500000000000000000e+01
3.500000000000000000e+03 6.035484242439270020e+01 -4.980285382822299653e+03 6.700000000000000000e+01
4.000000000000000000e+03 7.562996196746826172e+01 -5.696350648255553097e+03 6.300000000000000000e+01
4.500000000000000000e+03 7.949529457092285156e+01 -6.389055886130504405e+03 1.600000000000000000e+01
5.000000000000000000e+03 8.393564915657043457e+01 -7.083376777630490324e+03 1.900000000000000000e+01
5.500000000000000000e+03 9.029052424430847168e+01 -7.781138322833131497e+03 2.600000000000000000e+01
6.000000000000000000e+03 9.312528276443481445e+01 -8.472236915049625168e+03 1.300000000000000000e+01
6.500000000000000000e+03 9.684927010536193848e+01 -9.164572866344649810e+03 1.600000000000000000e+01
7.000000000000000000e+03 1.033635699748992920e+02 -9.862709907159854993e+03 2.700000000000000000e+01
7.500000000000000000e+03 1.065508480072021484e+02 -1.055380096162679911e+04 1.300000000000000000e+01
8.000000000000000000e+03 1.085585634708404541e+02 -1.124182373036269382e+04 1.200000000000000000e+01
8.500000000000000000e+03 1.117004497051239014e+02 -1.192908251941696290e+04 1.100000000000000000e+01
9.000000000000000000e+03 1.135734088420867920e+02 -1.261343539568040796e+04 1.100000000000000000e+01
9.500000000000000000e+03 1.161337125301361084e+02 -1.329737600847337671e+04 1.000000000000000000e+01
